302672,"AD","Andorra",3,"https://en.wikipedia.org/wiki/Andorra",
302618,"AE","United Arab Emirates",2,"https://en.wikipedia.org/wiki/United_Arab_Emirates","UAE,مطارات في الإمارات العربية المتحدة"
302619,"AF","Afghanistan",2,"https://en.wikipedia.org/wiki/Afghanistan",
302722,"AG","Antigua and Barbuda",4,"https://en.wikipedia.org/wiki/Antigua_and_Barbuda",
302723,"AI","Anguilla",4,"https://en.wikipedia.org/wiki/Anguilla",
302673,"AL","Albania",3,"https://en.wikipedia.org/wiki/Albania",
302620,"AM","Armenia",2,"https://en.wikipedia.org/wiki/Armenia",
302556,"AO","Angola",1,"https://en.wikipedia.org/wiki/Angola",
302615,"AQ","Antarctica","AN","https://en.wikipedia.org/wiki/Antarctica",
302789,"AR","Argentina",6,"https://en.wikipedia.org/wiki/Argentina","Aeropuertos de Argentina"
302763,"AS","American Samoa",5,"https://en.wikipedia.org/wiki/American_Samoa",
302674,"AT","Austria",3,"https://en.wikipedia.org/wiki/Austria","Flughäfen in Österreich"
302764,"AU","Australia",5,"https://en.wikipedia.org/wiki/Australia",
302725,"AW","Aruba",4,"https://en.wikipedia.org/wiki/Aruba",
302621,"AZ","Azerbaijan",2,"https://en.wikipedia.org/wiki/Azerbaijan",
302675,"BA","Bosnia and Herzegovina",3,"https://en.wikipedia.org/wiki/Bosnia_and_Herzegovina",
302726,"BB","Barbados",4,"https://en.wikipedia.org/wiki/Barbados",
302622,"BD","Bangladesh",2,"https://en.wikipedia.org/wiki/Bangladesh",
302676,"BE","Belgium",3,"https://en.wikipedia.org/wiki/Belgium","Aéroports de Belgique,Luchthavens van België"
302557,"BF","Burkina Faso",1,"https://en.wikipedia.org/wiki/Burkina_Faso",
302677,"BG","Bulgaria",3,"https://en.wikipedia.org/wiki/Bulgaria",
302623,"BH","Bahrain",2,"https://en.wikipedia.org/wiki/Bahrain","مطارات البحرين"
302558,"BI","Burundi",1,"https://en.wikipedia.org/wiki/Burundi",
302559,"BJ","Benin",1,"https://en.wikipedia.org/wiki/Benin",
302760,"BL","Saint Barthélemy",4,"https://en.wikipedia.org/wiki/Saint_Barthélemy",
302727,"BM","Bermuda",4,"https://en.wikipedia.org/wiki/Bermuda",
302624,"BN","Brunei",2,"https://en.wikipedia.org/wiki/Brunei",
302790,"BO","Bolivia",6,"https://en.wikipedia.org/wiki/Bolivia","Aeropuertos de Bolivia"
302724,"BQ","Caribbean Netherlands",4,"https://en.wikipedia.org/wiki/Caribbean_Netherlands",
302791,"BR","Brazil",6,"https://en.wikipedia.org/wiki/Brazil","Brasil, Brasilian"
302728,"BS","Bahamas",4,"https://en.wikipedia.org/wiki/Bahamas",
302625,"BT","Bhutan",2,"https://en.wikipedia.org/wiki/Bhutan",
302560,"BW","Botswana",1,"https://en.wikipedia.org/wiki/Botswana",
302678,"BY","Belarus",3,"https://en.wikipedia.org/wiki/Belarus","Belarussian, Беларусь"
302729,"BZ","Belize",4,"https://en.wikipedia.org/wiki/Belize",
302730,"CA","Canada",4,"https://en.wikipedia.org/wiki/Canada",
302626,"CC","Cocos (Keeling) Islands",2,"https://en.wikipedia.org/wiki/Cocos_(Keeling)_Islands",
302561,"CD","Congo (Kinshasa)",1,"https://en.wikipedia.org/wiki/Congo_(Kinshasa)",
302562,"CF","Central African Republic",1,"https://en.wikipedia.org/wiki/Central_African_Republic",
302563,"CG","Congo (Brazzaville)",1,"https://en.wikipedia.org/wiki/Congo_(Brazzaville)",
302679,"CH","Switzerland",3,"https://en.wikipedia.org/wiki/Switzerland","Aéroports de la Suisse,Flughäfen der Schweiz"
302564,"CI","Côte d'Ivoire",1,"https://en.wikipedia.org/wiki/Côte_d'Ivoire","Ivory Coast"
302765,"CK","Cook Islands",5,"https://en.wikipedia.org/wiki/Cook_Islands",
302792,"CL","Chile",6,"https://en.wikipedia.org/wiki/Chile","Aeropuertos de Chile"
302565,"CM","Cameroon",1,"https://en.wikipedia.org/wiki/Cameroon",
302627,"CN","China",2,"https://en.wikipedia.org/wiki/China","中国的机场"
302793,"CO","Colombia",6,"https://en.wikipedia.org/wiki/Colombia","Aeropuertos de Colombia"
302731,"CR","Costa Rica",4,"https://en.wikipedia.org/wiki/Costa_Rica","Aeropuertos de Costa Rica"
302732,"CU","Cuba",4,"https://en.wikipedia.org/wiki/Cuba","Aeropuertos de Cuba"
302566,"CV","Cape Verde",1,"https://en.wikipedia.org/wiki/Cape_Verde",
302762,"CW","Curaçao",4,"https://en.wikipedia.org/wiki/Cura%C3%A7ao",
302628,"CX","Christmas Island",2,"https://en.wikipedia.org/wiki/Christmas_Island",
302629,"CY","Cyprus",2,"https://en.wikipedia.org/wiki/Cyprus",
302680,"CZ","Czech Republic",3,"https://en.wikipedia.org/wiki/Czech_Republic","Letiště České republiky, Czechia"
302681,"DE","Germany",3,"https://en.wikipedia.org/wiki/Germany","Flughäfen in Deutschland"
302567,"DJ","Djibouti",1,"https://en.wikipedia.org/wiki/Djibouti",
302682,"DK","Denmark",3,"https://en.wikipedia.org/wiki/Denmark","Lufthavnene i Danmark"
302733,"DM","Dominica",4,"https://en.wikipedia.org/wiki/Dominica",
302734,"DO","Dominican Republic",4,"https://en.wikipedia.org/wiki/Dominican_Republic",
302568,"DZ","Algeria",1,"https://en.wikipedia.org/wiki/Algeria","مطارات الجزائر"
302794,"EC","Ecuador",6,"https://en.wikipedia.org/wiki/Ecuador","Aeropuertos de Ecuador"
302683,"EE","Estonia",3,"https://en.wikipedia.org/wiki/Estonia",
302569,"EG","Egypt",1,"https://en.wikipedia.org/wiki/Egypt","مطارات مصر"
302570,"EH","Western Sahara",1,"https://en.wikipedia.org/wiki/Western_Sahara","Sahrawian, مطارات الصحراء الغربية"
302571,"ER","Eritrea",1,"https://en.wikipedia.org/wiki/Eritrea",
302684,"ES","Spain",3,"https://en.wikipedia.org/wiki/Spain","Aeropuertos de España"
302572,"ET","Ethiopia",1,"https://en.wikipedia.org/wiki/Ethiopia",
302685,"FI","Finland",3,"https://en.wikipedia.org/wiki/Finland","Lentokentät, Suomen"
302766,"FJ","Fiji",5,"https://en.wikipedia.org/wiki/Fiji",
302795,"FK","Falkland Islands",6,"https://en.wikipedia.org/wiki/Falkland_Islands",
302767,"FM","Micronesia",5,"https://en.wikipedia.org/wiki/Federated_States_of_Micronesia",
302686,"FO","Faroe Islands",3,"https://en.wikipedia.org/wiki/Faroe_Islands",
302687,"FR","France",3,"https://en.wikipedia.org/wiki/France","Aéroports de France"
302573,"GA","Gabon",1,"https://en.wikipedia.org/wiki/Gabon",
302688,"GB","United Kingdom",3,"https://en.wikipedia.org/wiki/United_Kingdom","Great Britain"
302735,"GD","Grenada",4,"https://en.wikipedia.org/wiki/Grenada",
302630,"GE","Georgia",2,"https://en.wikipedia.org/wiki/Georgia_(country)",
302796,"GF","French Guiana",6,"https://en.wikipedia.org/wiki/French_Guiana","French Guyana"
302689,"GG","Guernsey",3,"https://en.wikipedia.org/wiki/Guernsey",
302574,"GH","Ghana",1,"https://en.wikipedia.org/wiki/Ghana",
302690,"GI","Gibraltar",3,"https://en.wikipedia.org/wiki/Gibraltar",
302736,"GL","Greenland",4,"https://en.wikipedia.org/wiki/Greenland",
302575,"GM","Gambia",1,"https://en.wikipedia.org/wiki/Gambia",
302576,"GN","Guinea",1,"https://en.wikipedia.org/wiki/Guinea","Aéroports de la Guinée"
302737,"GP","Guadeloupe",4,"https://en.wikipedia.org/wiki/Guadeloupe",
302577,"GQ","Equatorial Guinea",1,"https://en.wikipedia.org/wiki/Equatorial_Guinea",
302691,"GR","Greece",3,"https://en.wikipedia.org/wiki/Greece","αεροδρόμια στην Ελλάδα"
302616,"GS","South Georgia and the South Sandwich Islands","AN","https://en.wikipedia.org/wiki/South_Georgia_and_the_South_Sandwich_Islands",
302738,"GT","Guatemala",4,"https://en.wikipedia.org/wiki/Guatemala","Aeropuertos de Guatemala"
302768,"GU","Guam",5,"https://en.wikipedia.org/wiki/Guam",
302578,"GW","Guinea-Bissau",1,"https://en.wikipedia.org/wiki/Guinea-Bissau",
302797,"GY","Guyana",6,"https://en.wikipedia.org/wiki/Guyana",
302631,"HK","Hong Kong",2,"https://en.wikipedia.org/wiki/Hong_Kong",
302739,"HN","Honduras",4,"https://en.wikipedia.org/wiki/Honduras","Aeropuertos de Honduras"
302692,"HR","Croatia",3,"https://en.wikipedia.org/wiki/Croatia",
302740,"HT","Haiti",4,"https://en.wikipedia.org/wiki/Haiti","Aéroports de Haïti"
302693,"HU","Hungary",3,"https://en.wikipedia.org/wiki/Hungary","Repülőterek Magyarország"
302632,"ID","Indonesia",2,"https://en.wikipedia.org/wiki/Indonesia","Bandara di Indonesia"
302694,"IE","Ireland",3,"https://en.wikipedia.org/wiki/Ireland","Eire"
302633,"IL","Israel",2,"https://en.wikipedia.org/wiki/Israel","שדות התעופה של ישראל"
302695,"IM","Isle of Man",3,"https://en.wikipedia.org/wiki/Isle_of_Man",
302634,"IN","India",2,"https://en.wikipedia.org/wiki/India",
302635,"IO","British Indian Ocean Territory",2,"https://en.wikipedia.org/wiki/British_Indian_Ocean_Territory",
302636,"IQ","Iraq",2,"https://en.wikipedia.org/wiki/Iraq","مطارات العراق"
302637,"IR","Iran",2,"https://en.wikipedia.org/wiki/Iran","فرودگاه های ایران"
302696,"IS","Iceland",3,"https://en.wikipedia.org/wiki/Iceland",
302697,"IT","Italy",3,"https://en.wikipedia.org/wiki/Italy","Aeroporti d'Italia"
302698,"JE","Jersey",3,"https://en.wikipedia.org/wiki/Jersey",
302741,"JM","Jamaica",4,"https://en.wikipedia.org/wiki/Jamaica",
302638,"JO","Jordan",2,"https://en.wikipedia.org/wiki/Jordan","مطارات في الأردن"
302639,"JP","Japan",2,"https://en.wikipedia.org/wiki/Japan","Nippon, 日本の空港"
302579,"KE","Kenya",1,"https://en.wikipedia.org/wiki/Kenya",
302640,"KG","Kyrgyzstan",2,"https://en.wikipedia.org/wiki/Kyrgyzstan",
302641,"KH","Cambodia",2,"https://en.wikipedia.org/wiki/Cambodia",
302769,"KI","Kiribati",5,"https://en.wikipedia.org/wiki/Kiribati",
302580,"KM","Comoros",1,"https://en.wikipedia.org/wiki/Comoros","جزر القمر"
302742,"KN","Saint Kitts and Nevis",4,"https://en.wikipedia.org/wiki/Saint_Kitts_and_Nevis",
302642,"KP","North Korea",2,"https://en.wikipedia.org/wiki/North_Korea",
302643,"KR","South Korea",2,"https://en.wikipedia.org/wiki/South_Korea","한국의 공항"
302644,"KW","Kuwait",2,"https://en.wikipedia.org/wiki/Kuwait",
302743,"KY","Cayman Islands",4,"https://en.wikipedia.org/wiki/Cayman_Islands",
302645,"KZ","Kazakhstan",2,"https://en.wikipedia.org/wiki/Kazakhstan","Kazakh"
302646,"LA","Laos",2,"https://en.wikipedia.org/wiki/Laos",
302647,"LB","Lebanon",2,"https://en.wikipedia.org/wiki/Lebanon","المطارات في لبنان"
302744,"LC","Saint Lucia",4,"https://en.wikipedia.org/wiki/Saint_Lucia",
302699,"LI","Liechtenstein",3,"https://en.wikipedia.org/wiki/Liechtenstein",
302648,"LK","Sri Lanka",2,"https://en.wikipedia.org/wiki/Sri_Lanka",
302581,"LR","Liberia",1,"https://en.wikipedia.org/wiki/Liberia",
302582,"LS","Lesotho",1,"https://en.wikipedia.org/wiki/Lesotho",
302700,"LT","Lithuania",3,"https://en.wikipedia.org/wiki/Lithuania",
302701,"LU","Luxembourg",3,"https://en.wikipedia.org/wiki/Luxembourg",
302702,"LV","Latvia",3,"https://en.wikipedia.org/wiki/Latvia",
302583,"LY","Libya",1,"https://en.wikipedia.org/wiki/Libya","مطارات في ليبيا"
302584,"MA","Morocco",1,"https://en.wikipedia.org/wiki/Morocco","مطارات المغرب"
302703,"MC","Monaco",3,"https://en.wikipedia.org/wiki/Monaco",
302704,"MD","Moldova",3,"https://en.wikipedia.org/wiki/Moldova",
302705,"ME","Montenegro",3,"https://en.wikipedia.org/wiki/Montenegro",
302759,"MF","Saint Martin",4,"https://en.wikipedia.org/wiki/Saint_Martin_(France)",
302585,"MG","Madagascar",1,"https://en.wikipedia.org/wiki/Madagascar",
302770,"MH","Marshall Islands",5,"https://en.wikipedia.org/wiki/Marshall_Islands",
302706,"MK","North Macedonia",3,"https://en.wikipedia.org/wiki/Macedonia",
302586,"ML","Mali",1,"https://en.wikipedia.org/wiki/Mali","Aéroports du Mali"
302649,"MM","Burma",2,"https://en.wikipedia.org/wiki/Burma","Myanmar"
302650,"MN","Mongolia",2,"https://en.wikipedia.org/wiki/Mongolia",
302651,"MO","Macau",2,"https://en.wikipedia.org/wiki/Macau","Macao"
302771,"MP","Northern Mariana Islands",5,"https://en.wikipedia.org/wiki/Northern_Mariana_Islands",
302745,"MQ","Martinique",4,"https://en.wikipedia.org/wiki/Martinique",
302587,"MR","Mauritania",1,"https://en.wikipedia.org/wiki/Mauritania","مطارات موريتانيا"
302746,"MS","Montserrat",4,"https://en.wikipedia.org/wiki/Montserrat",
302707,"MT","Malta",3,"https://en.wikipedia.org/wiki/Malta",
302588,"MU","Mauritius",1,"https://en.wikipedia.org/wiki/Mauritius",
302652,"MV","Maldives",2,"https://en.wikipedia.org/wiki/Maldives",
302589,"MW","Malawi",1,"https://en.wikipedia.org/wiki/Malawi",
302747,"MX","Mexico",4,"https://en.wikipedia.org/wiki/Mexico","Aeropuertos de México"
302653,"MY","Malaysia",2,"https://en.wikipedia.org/wiki/Malaysia","Lapangan Terbang Malaysia"
302590,"MZ","Mozambique",1,"https://en.wikipedia.org/wiki/Mozambique",
302591,"NA","Namibia",1,"https://en.wikipedia.org/wiki/Namibia",
302772,"NC","New Caledonia",5,"https://en.wikipedia.org/wiki/New_Caledonia",
302592,"NE","Niger",1,"https://en.wikipedia.org/wiki/Niger",
302773,"NF","Norfolk Island",5,"https://en.wikipedia.org/wiki/Norfolk_Island",
302593,"NG","Nigeria",1,"https://en.wikipedia.org/wiki/Nigeria",
302748,"NI","Nicaragua",4,"https://en.wikipedia.org/wiki/Nicaragua","Aeropuertos de Nicaragua"
302708,"NL","Netherlands",3,"https://en.wikipedia.org/wiki/Netherlands","Holland,Luchthavens van Nederland"
302709,"NO","Norway",3,"https://en.wikipedia.org/wiki/Norway","Flyplasser i Norge"
302654,"NP","Nepal",2,"https://en.wikipedia.org/wiki/Nepal","नेपाल विमानस्थलको"
302774,"NR","Nauru",5,"https://en.wikipedia.org/wiki/Nauru",
302775,"NU","Niue",5,"https://en.wikipedia.org/wiki/Niue",
302776,"NZ","New Zealand",5,"https://en.wikipedia.org/wiki/New_Zealand",
302655,"OM","Oman",2,"https://en.wikipedia.org/wiki/Oman","مطارات عمان"
302749,"PA","Panama",4,"https://en.wikipedia.org/wiki/Panama","Aeropuertos de Panamá"
302798,"PE","Perú",6,"https://en.wikipedia.org/wiki/Perú","Aeropuertos de Perú"
302777,"PF","French Polynesia",5,"https://en.wikipedia.org/wiki/French_Polynesia",
302778,"PG","Papua New Guinea",5,"https://en.wikipedia.org/wiki/Papua_New_Guinea",
302656,"PH","Philippines",2,"https://en.wikipedia.org/wiki/Philippines","Mga alternatibong byahe mula sa Pilipinas"
302657,"PK","Pakistan",2,"https://en.wikipedia.org/wiki/Pakistan","پاکستان کے ہوائی اڈوں"
302710,"PL","Poland",3,"https://en.wikipedia.org/wiki/Poland","Lotniska Polski"
302750,"PM","Saint Pierre and Miquelon",4,"https://en.wikipedia.org/wiki/Saint_Pierre_and_Miquelon",
302779,"PN","Pitcairn",5,"https://en.wikipedia.org/wiki/Pitcairn",
302751,"PR","Puerto Rico",4,"https://en.wikipedia.org/wiki/Puerto_Rico",
302658,"PS","Palestinian Territory",2,"https://en.wikipedia.org/wiki/Palestinian_Territory",
302711,"PT","Portugal",3,"https://en.wikipedia.org/wiki/Portugal","Aeroportos do Brasil"
302780,"PW","Palau",5,"https://en.wikipedia.org/wiki/Palau",
302799,"PY","Paraguay",6,"https://en.wikipedia.org/wiki/Paraguay","Aeropuertos de Paraguay"
302659,"QA","Qatar",2,"https://en.wikipedia.org/wiki/Qatar","مطارات قطر"
302594,"RE","Réunion",1,"https://en.wikipedia.org/wiki/Réunion","Île Bourbon, La Réunion"
302712,"RO","Romania",3,"https://en.wikipedia.org/wiki/Romania","Aeroporturi din România"
302713,"RS","Serbia",3,"https://en.wikipedia.org/wiki/Serbia","Serb"
302714,"RU","Russia",3,"https://en.wikipedia.org/wiki/Russia","Soviet, Sovietskaya, Sovetskaya, Аэропорты России"
302595,"RW","Rwanda",1,"https://en.wikipedia.org/wiki/Rwanda",
302660,"SA","Saudi Arabia",2,"https://en.wikipedia.org/wiki/Saudi_Arabia","مطارات المملكة العربية السعودية,المطارات لموسم الحج"
302781,"SB","Solomon Islands",5,"https://en.wikipedia.org/wiki/Solomon_Islands",
302596,"SC","Seychelles",1,"https://en.wikipedia.org/wiki/Seychelles",
302597,"SD","Sudan",1,"https://en.wikipedia.org/wiki/Sudan","مطارات السودان"
302715,"SE","Sweden",3,"https://en.wikipedia.org/wiki/Sweden","Flygplatserna i Sverige"
302661,"SG","Singapore",2,"https://en.wikipedia.org/wiki/Singapore",
302598,"SH","Saint Helena",1,"https://en.wikipedia.org/wiki/Saint_Helena",
302716,"SI","Slovenia",3,"https://en.wikipedia.org/wiki/Slovenia",
302717,"SK","Slovakia",3,"https://en.wikipedia.org/wiki/Slovakia","letisko Slovenska"
302599,"SL","Sierra Leone",1,"https://en.wikipedia.org/wiki/Sierra_Leone",
302718,"SM","San Marino",3,"https://en.wikipedia.org/wiki/San_Marino",
302600,"SN","Senegal",1,"https://en.wikipedia.org/wiki/Senegal","Aéroports du Sénégal"
302601,"SO","Somalia",1,"https://en.wikipedia.org/wiki/Somalia",
302800,"SR","Suriname",6,"https://en.wikipedia.org/wiki/Suriname",
302614,"SS","South Sudan",1,"https://en.wikipedia.org/wiki/South_Sudan",
302602,"ST","São Tomé and Principe",1,"https://en.wikipedia.org/wiki/São_Tomé_and_Principe",
302752,"SV","El Salvador",4,"https://en.wikipedia.org/wiki/El_Salvador","Salvadorian, Salvadorean"
302761,"SX","Sint Maarten",4,"https://en.wikipedia.org/wiki/Sint_Maarten",
302662,"SY","Syria",2,"https://en.wikipedia.org/wiki/Syria","مطارات سوريا"
302603,"SZ","Eswatini",1,"https://en.wikipedia.org/wiki/Eswatini","Swaziland"
302753,"TC","Turks and Caicos Islands",4,"https://en.wikipedia.org/wiki/Turks_and_Caicos_Islands",
302604,"TD","Chad",1,"https://en.wikipedia.org/wiki/Chad",
302617,"TF","French Southern Territories","AN","https://en.wikipedia.org/wiki/French_Southern_Territories",
302605,"TG","Togo",1,"https://en.wikipedia.org/wiki/Togo",
302663,"TH","Thailand",2,"https://en.wikipedia.org/wiki/Thailand","Siam, Siamese"
302664,"TJ","Tajikistan",2,"https://en.wikipedia.org/wiki/Tajikistan","Tajik"
302782,"TK","Tokelau",5,"https://en.wikipedia.org/wiki/Tokelau",
302665,"TL","Timor-Leste",2,"https://en.wikipedia.org/wiki/Timor-Leste","East Timor"
302666,"TM","Turkmenistan",2,"https://en.wikipedia.org/wiki/Turkmenistan",
302606,"TN","Tunisia",1,"https://en.wikipedia.org/wiki/Tunisia","مطارات تونس"
302783,"TO","Tonga",5,"https://en.wikipedia.org/wiki/Tonga",
302667,"TR","Turkey",2,"https://en.wikipedia.org/wiki/Turkey","Türkiye havaalanları"
302754,"TT","Trinidad and Tobago",4,"https://en.wikipedia.org/wiki/Trinidad_and_Tobago",
302784,"TV","Tuvalu",5,"https://en.wikipedia.org/wiki/Tuvalu",
302668,"TW","Taiwan",2,"https://en.wikipedia.org/wiki/Taiwan",
302607,"TZ","Tanzania",1,"https://en.wikipedia.org/wiki/Tanzania",
302719,"UA","Ukraine",3,"https://en.wikipedia.org/wiki/Ukraine","Аеропорти України"
302608,"UG","Uganda",1,"https://en.wikipedia.org/wiki/Uganda",
302785,"UM","United States Minor Outlying Islands",5,"https://en.wikipedia.org/wiki/United_States_Minor_Outlying_Islands",
302755,"US","United States",4,"https://en.wikipedia.org/wiki/United_States","America"
302801,"UY","Uruguay",6,"https://en.wikipedia.org/wiki/Uruguay","Aeropuertos de Uruguay"
302669,"UZ","Uzbekistan",2,"https://en.wikipedia.org/wiki/Uzbekistan","Uzbek"
302721,"VA","Vatican City",3,"https://en.wikipedia.org/wiki/Vatican_City","The Holy See"
302756,"VC","Saint Vincent and the Grenadines",4,"https://en.wikipedia.org/wiki/Saint_Vincent_and_the_Grenadines",
302802,"VE","Venezuela",6,"https://en.wikipedia.org/wiki/Venezuela","Aeropuertos de Venezuela"
302757,"VG","British Virgin Islands",4,"https://en.wikipedia.org/wiki/British_Virgin_Islands",
302758,"VI","U.S. Virgin Islands",4,"https://en.wikipedia.org/wiki/U.S._Virgin_Islands",
302670,"VN","Vietnam",2,"https://en.wikipedia.org/wiki/Vietnam","Các sân bay của Việt Nam"
302786,"VU","Vanuatu",5,"https://en.wikipedia.org/wiki/Vanuatu",
302787,"WF","Wallis and Futuna",5,"https://en.wikipedia.org/wiki/Wallis_and_Futuna",
302788,"WS","Samoa",5,"https://en.wikipedia.org/wiki/Samoa",
302720,"XK","Kosovo",3,"https://en.wikipedia.org/wiki/Kosovo","Kosova"
302671,"YE","Yemen",2,"https://en.wikipedia.org/wiki/Yemen","مطارات اليمن"
302609,"YT","Mayotte",1,"https://en.wikipedia.org/wiki/Mayotte",
302610,"ZA","South Africa",1,"https://en.wikipedia.org/wiki/South_Africa",
302611,"ZM","Zambia",1,"https://en.wikipedia.org/wiki/Zambia",
302612,"ZW","Zimbabwe",1,"https://en.wikipedia.org/wiki/Zimbabwe",
302613,"ZZ","Unknown or unassigned country",1,"https://en.wikipedia.org/wiki/Unknown_or_unassigned_country",
